"CaseID","Time","Status","TRT","Age","Sex","Edema","Bilirubin","Albumin","Prothtime"
1,400,2,"DPCA",21464,"F",1,14.5,2.6,12.2
2,4500,0,"DPCA",20617,"F",0,1.1,4.14,10.6
3,1012,2,"DPCA",25594,"M",0.5,1.4,3.48,12
4,1925,2,"DPCA",19994,"F",0.5,1.8,2.54,10.3
5,1504,1,"P",13918,"F",0,3.4,3.53,10.9
6,2503,2,"P",24201,"F",0,0.8,3.98,11
7,1832,0,"P",20284,"F",0,1,4.09,9.7
8,2466,2,"P",19379,"F",0,0.3,4,11
9,2400,2,"DPCA",15526,"F",0,3.2,3.08,11
10,51,2,"P",25772,"F",1,12.6,2.74,11.5
11,3762,2,"P",19619,"F",0,1.4,4.16,12
12,304,2,"P",21600,"F",0,3.6,3.52,13.6
13,3577,0,"P",16688,"F",0,0.7,3.85,10.6
14,1217,2,"P",20535,"M",1,0.8,2.27,11
15,3584,2,"DPCA",23612,"F",0,0.8,3.87,11
16,3672,0,"P",14772,"F",0,0.7,3.66,10.8
17,769,2,"P",19060,"F",0,2.7,3.15,10.5
18,131,2,"DPCA",19698,"F",1,11.4,2.8,12.4
19,4232,0,"DPCA",18102,"F",0.5,0.7,3.56,11
20,1356,2,"P",21898,"F",0,5.1,3.51,13
21,3445,0,"P",23445,"M",0,0.6,3.83,11.4
22,673,2,"DPCA",20555,"F",0,3.4,3.63,11.6
23,264,2,"P",20442,"F",1,17.4,2.94,11.7
24,4079,2,"DPCA",16261,"M",0,2.1,4,9.9
25,4127,0,"P",16463,"F",0,0.7,4.1,11.3
26,1444,2,"P",19002,"F",0,5.2,3.68,9.9
27,77,2,"P",19884,"F",0.5,21.6,3.31,12
28,549,2,"P",16417,"F",1,17.2,3.23,13
29,4509,0,"P",23331,"F",0,0.7,3.78,10.6
30,321,2,"P",15116,"F",0,3.6,2.54,11
31,3839,2,"P",15177,"F",0,4.7,3.44,10.3
32,4523,0,"P",19722,"F",0,1.8,3.34,10.6
33,3170,2,"P",18731,"F",0,0.8,3.19,12
34,3933,0,"DPCA",19015,"F",0,0.8,3.7,10.5
35,2847,2,"P",17758,"F",0,1.2,3.2,10.6
36,3611,0,"P",20604,"F",0,0.3,3.39,10.6
37,223,2,"DPCA",22546,"F",1,7.1,3.01,12
38,3244,2,"P",13378,"F",0,3.3,3.53,11
39,2297,2,"DPCA",20232,"F",0,0.7,3,10.6
40,4467,0,"DPCA",17046,"F",0,1.3,3.34,11
41,1350,2,"DPCA",12285,"F",0,6.8,3.26,11.7
42,4453,0,"P",12307,"F",0,2.1,3.54,11
43,4556,0,"DPCA",17850,"F",0,1.1,3.64,10.6
44,3428,2,"P",13727,"F",1,3.3,3.55,11.7
45,4025,0,"P",15265,"F",0,0.6,3.93,10.9
46,2256,2,"DPCA",16728,"F",0,5.7,2.84,12.7
47,2576,0,"P",17323,"F",0,0.5,3.65,9.8
48,4427,0,"P",17947,"M",0,1.9,3.7,11
49,708,2,"P",22336,"F",0,0.8,3.82,11
50,2598,2,"DPCA",19544,"F",0,1.1,3.36,10.6
51,3853,2,"P",19025,"F",0,0.8,3.6,10.6
52,2386,2,"DPCA",18460,"M",0,6,3.7,10.6
53,1000,2,"DPCA",24621,"F",0,2.6,3.1,11
54,1434,2,"DPCA",14317,"F",1,1.3,3.4,11
55,1360,2,"DPCA",24020,"M",0,1.8,3.94,11
56,1847,2,"P",12279,"F",0,1.1,3.8,10.6
57,3282,2,"DPCA",19567,"F",0.5,2.3,3.18,12.4
58,4459,0,"DPCA",16279,"M",0,0.7,4.08,10.6
59,2224,2,"DPCA",14754,"F",0,0.8,3.5,10.6
60,4365,0,"DPCA",21324,"F",0,0.9,3.4,10.3
61,4256,0,"P",16034,"M",0,0.6,3.94,13
62,3090,2,"P",22173,"F",0,1.3,2.75,13.2
63,859,2,"P",17031,"F",1,22.5,3.12,11.6
64,1487,2,"P",22977,"F",0,2.1,3.5,11
65,3992,0,"DPCA",14684,"F",0,1.2,3.6,10
66,4191,2,"DPCA",16967,"M",0,1.4,3.7,11
67,2769,2,"P",18733,"F",0,1.1,3.91,10
68,4039,0,"DPCA",11912,"F",0,0.7,4.09,10.6
69,1170,2,"DPCA",18021,"F",0.5,20,3.46,12.4
70,3458,0,"DPCA",20600,"F",0,0.6,4.64,10.6
71,4196,0,"P",17841,"F",0,1.2,3.57,11.5
72,4184,0,"P",11868,"F",0,0.5,3.54,10
73,4190,0,"P",14060,"F",0,0.7,3.6,11
74,1827,2,"DPCA",18964,"F",0,8.4,3.99,11
75,1191,2,"DPCA",15895,"F",0.5,17.1,2.53,11.5
76,71,2,"DPCA",18972,"F",0.5,12.2,3.08,11.6
77,326,2,"P",18199,"F",0.5,6.6,3.41,12.1
78,1690,2,"DPCA",17512,"F",0,6.3,3.02,10.6
79,3707,0,"DPCA",16990,"F",0,0.8,4.24,10.9
80,890,2,"P",24622,"M",0,7.2,3.72,11.2
81,2540,2,"DPCA",23107,"F",0,14.4,3.65,11.7
82,3574,2,"DPCA",24585,"F",0,4.5,4.09,11.1
83,4050,0,"DPCA",20459,"F",0.5,1.3,3.5,12.9
84,4032,0,"P",20392,"F",0,0.4,3.76,11.2
85,3358,2,"P",17246,"F",0,2.1,3.48,11.5
86,1657,2,"DPCA",19270,"F",0,5,3.21,10.9
87,198,2,"DPCA",13616,"F",0,1.1,4.4,10.7
88,2452,0,"P",15119,"F",0.5,0.6,4.06,12
89,1741,2,"DPCA",19155,"F",0,2,3.65,11.4
90,2689,2,"DPCA",12227,"M",0,1.6,4.22,11
91,460,2,"P",16658,"F",0.5,5,3.47,11.9
92,388,2,"DPCA",28018,"F",1,1.4,3.13,12.2
93,3913,0,"DPCA",13344,"F",0,1.3,3.67,11.1
94,750,2,"DPCA",19693,"F",0,3.2,3.11,11.8
95,130,2,"P",16944,"F",1,17.4,2.64,11.7
96,3850,0,"DPCA",17841,"F",0,1,3.7,10.4
97,611,2,"P",26259,"M",0.5,2,3.26,11.4
98,3823,0,"DPCA",10550,"F",0,1,3.77,10.2
99,3820,0,"P",17703,"M",0,1.8,3.35,10.2
100,552,2,"P",18799,"M",0,2.3,3,12
101,3581,0,"P",16418,"F",0,0.9,3.6,10.4
102,3099,0,"DPCA",20662,"F",0,0.9,3.97,10.1
103,110,2,"P",17884,"F",1,2.5,3.67,11.1
104,3086,2,"DPCA",15712,"F",0,1.1,3.64,11.1
105,3092,1,"P",12433,"F",0,1.1,4.2,10.3
106,3222,2,"DPCA",25023,"F",0,2.1,3.9,10.6
107,3388,0,"P",22836,"F",0,0.6,4.03,17.1
108,2583,2,"DPCA",18393,"F",0,0.4,3.5,10.3
109,2504,0,"P",16094,"F",0,0.5,3.61,10.6
110,2105,2,"DPCA",14212,"F",0,1.9,3.54,10.9
111,2350,1,"DPCA",15031,"F",0,5.5,4.18,10.7
112,3445,2,"P",20256,"F",0,2,3.67,11.8
113,980,2,"DPCA",18713,"F",0,6.7,3.74,11.1
114,3395,2,"P",19295,"M",0,3.2,4.3,11.7
115,3422,0,"P",15574,"F",0,0.7,4.19,10.3
116,3336,0,"DPCA",22306,"F",0.5,3,3.63,9.9
117,1083,2,"DPCA",18137,"F",0,6.5,3.11,11
118,2288,2,"DPCA",17844,"F",0,3.5,3.3,10.2
119,515,2,"DPCA",19817,"F",0,0.6,3.83,9.5
120,2033,1,"DPCA",12839,"M",0,3.5,3.98,10.6
121,191,2,"P",24803,"M",1,1.3,3.08,13.2
122,3297,0,"DPCA",20248,"F",0,0.6,4.13,10.7
123,971,2,"DPCA",16736,"F",1,5.1,3.23,13
124,3069,0,"DPCA",19318,"M",0,0.6,3.9,10.8
125,2468,1,"P",17233,"F",0,1.3,3.51,10
126,824,2,"DPCA",19577,"F",0,1.2,3.12,11.1
127,3255,0,"P",16109,"F",0,0.5,4.08,10
128,1037,2,"DPCA",15322,"F",0,16.2,2.89,12.6
129,3239,0,"DPCA",23235,"F",0,0.9,3.87,9.7
130,1413,2,"P",16154,"F",0,17.4,3.43,11.5
131,850,2,"P",22646,"F",0,2.8,3.8,13.2
132,2944,0,"DPCA",14812,"F",0,1.9,3.83,9.8
133,2796,2,"P",22881,"M",0,1.5,3.95,10.1
134,3149,0,"P",15463,"F",0,0.7,3.67,10.7
135,3150,0,"DPCA",15694,"F",0,0.4,3.57,11
136,3098,0,"DPCA",20440,"F",0,0.8,3.35,9.8
137,2990,0,"DPCA",22960,"F",0,1.1,3.6,10.1
138,1297,2,"DPCA",18719,"M",0,7.3,3.93,10.5
139,2106,0,"P",17080,"F",0,1.1,3.31,11.6
140,3059,0,"DPCA",19751,"F",0,1.1,4.09,10
141,3050,0,"DPCA",17180,"F",0,0.9,3.77,10.6
142,2419,2,"P",20354,"F",0,1,3.48,9.9
143,786,2,"P",16839,"F",0,2.9,3.6,11
144,943,2,"P",19098,"F",0.5,28,3.26,10
145,2976,0,"P",18701,"F",0,0.7,3.84,11.4
146,2615,0,"P",12369,"F",0.5,1.2,3.89,9.4
147,2995,0,"DPCA",27398,"F",0.5,1.2,3.37,10.7
148,1427,2,"P",11273,"F",0,7.2,3.26,9.8
149,762,2,"DPCA",22574,"M",0.5,3,3.79,9.9
150,2891,0,"P",12779,"F",0,1,3.63,10
151,2870,0,"DPCA",20104,"F",0,0.9,3.03,9.4
152,1152,2,"DPCA",25546,"M",0,2.3,3.01,10.9
153,2863,0,"DPCA",18118,"F",0,0.5,3.85,11.1
154,140,2,"DPCA",25340,"M",1,2.4,2.56,14.1
155,2666,0,"P",15909,"F",0.5,0.6,3.35,11.2
156,853,2,"P",21699,"F",0,25.5,3.52,11.5
157,2835,0,"P",17809,"F",0,0.6,3.42,10
158,2475,1,"DPCA",13329,"F",0,3.4,3.37,11.2
159,1536,2,"P",16714,"M",0,2.5,3.46,10.1
160,2772,0,"P",20955,"F",0,0.6,3.62,10.5
161,2797,0,"P",15612,"F",0,2.3,3.56,9.6
162,186,2,"P",21483,"F",0,3.2,3.19,12
163,2055,2,"DPCA",19540,"F",0,0.3,4.08,9.9
164,264,2,"P",15857,"F",0.5,8.5,3.34,13.3
165,1077,2,"DPCA",19470,"M",0,4,3.45,11.3
166,2721,0,"P",15105,"F",0,5.7,3.26,9.5
167,1682,2,"DPCA",22265,"M",0,0.9,3.86,10.3
168,2713,0,"P",17442,"F",0,0.4,3.8,9.2
169,1212,2,"P",12963,"F",0,1.3,4.22,10.1
170,2692,0,"DPCA",17774,"F",0,1.2,3.61,9
171,2574,0,"DPCA",19237,"F",0,0.5,4.52,10.1
172,2301,0,"P",18215,"F",0,1.3,3.34,9.8
173,2657,0,"DPCA",11058,"F",0,3,3.42,9.8
174,2644,0,"DPCA",20296,"F",0,0.5,3.85,9.7
175,2624,0,"P",19049,"F",0,0.8,3.8,10.1
176,1492,2,"DPCA",15198,"F",0,3.2,3.56,10.1
177,2609,0,"P",20254,"F",0,0.9,4.01,10.4
178,2580,0,"DPCA",25569,"F",0,0.6,4.08,10.2
179,2573,0,"P",16050,"F",0,1.8,3.83,9.9
180,2563,0,"P",15548,"F",0,4.7,4.38,10.4
181,2556,0,"DPCA",16279,"F",0,1.4,3.58,10.3
182,2555,0,"DPCA",20799,"F",0,0.6,3.69,9.9
183,2241,1,"P",14705,"F",0,0.5,3.73,10.1
184,974,2,"P",13736,"F",0,11,3.55,9.8
185,2527,0,"DPCA",17664,"F",0,0.8,3.54,10.5
186,1576,2,"DPCA",25873,"F",0.5,2,3.53,12.7
187,733,2,"P",13073,"F",0,14,3.43,11.5
188,2332,0,"DPCA",22873,"F",0,0.7,3.48,11
189,2456,0,"P",18499,"F",0,1.3,3.63,9.9
190,2504,0,"DPCA",19916,"F",0,2.3,3.93,10.2
191,216,2,"P",19246,"F",0,24.5,3.35,15.2
192,2443,0,"DPCA",19256,"F",0,0.9,3.69,9.8
193,797,2,"P",20736,"F",0,10.8,3.19,10.4
194,2449,0,"DPCA",16216,"F",0,1.5,4.3,9.1
195,2330,0,"DPCA",10795,"F",0,3.7,3.9,11.5
196,2363,0,"DPCA",20834,"F",0,1.4,3.36,11.6
197,2365,0,"DPCA",16300,"F",0,0.6,3.97,10.1
198,2357,0,"P",13075,"F",0,0.7,2.9,9.6
199,1592,0,"DPCA",14872,"F",0,2.1,3.43,10.2
200,2318,0,"P",11773,"F",0,4.7,3.55,9.9
201,2294,0,"P",15009,"F",0,0.6,3.2,10.8
202,2272,0,"DPCA",22514,"F",0,0.5,3.8,10
203,2221,0,"P",13535,"F",0,0.5,4.04,9.9
204,2090,2,"P",22857,"F",0,0.7,3.74,10.2
205,2081,2,"DPCA",17889,"F",0,2.5,3.55,10.3
206,2255,0,"DPCA",22642,"F",0,0.6,4.07,11
207,2171,0,"DPCA",26580,"F",0.5,0.6,3.33,10.1
208,904,2,"DPCA",22388,"F",0,3.9,3.2,10
209,2216,0,"P",19221,"F",0,0.7,4.01,9.5
210,2224,0,"P",18176,"M",0,0.9,3.37,10
211,2195,0,"P",19327,"F",0,1.3,3.76,10.3
212,2176,0,"P",17263,"F",0,1.2,3.98,9.9
213,2178,0,"DPCA",18337,"F",0,0.5,3.4,10.2
214,1786,2,"P",25329,"F",0,0.9,3.43,9.9
215,1080,2,"P",15037,"F",0,5.9,3.85,10.7
216,2168,0,"DPCA",21610,"F",0,0.5,3.68,10.4
217,790,2,"P",13178,"F",0,11.4,3.31,10.8
218,2170,0,"DPCA",12636,"F",0,0.5,3.89,10.1
219,2157,0,"P",15601,"F",0,1.6,4.17,9.6
220,1235,2,"DPCA",23241,"F",0,3.8,3.22,10.6
221,2050,0,"P",20684,"F",0,0.9,3.65,9.7
222,597,2,"P",16898,"F",0,4.5,3.38,12.4
223,334,2,"DPCA",22369,"F",1,14.1,2.43,11
224,1945,0,"DPCA",14106,"F",0,1,3.66,9.7
225,2022,0,"DPCA",14161,"F",0,0.7,3.66,10.1
226,1978,0,"P",20708,"F",0,0.5,3.7,9.6
227,999,2,"DPCA",21532,"M",0,2.3,3.35,9.7
228,1967,0,"P",13486,"F",0,0.7,3.35,9.6
229,348,2,"DPCA",22797,"F",0.5,4.5,3.05,11.4
230,1979,0,"P",12641,"F",0,3.3,3.41,11.5
231,1165,2,"P",21307,"F",0,3.4,1.96,10.7
232,1951,0,"DPCA",18329,"F",0,0.4,3.02,10.6
233,1932,0,"DPCA",15591,"F",0,0.9,3.06,9.8
234,1776,0,"P",12557,"F",0,0.9,3.35,11.2
235,1882,0,"P",12120,"F",0,13,4.16,11.9
236,1908,0,"DPCA",14019,"F",0,1.5,3.79,9.7
237,1882,0,"DPCA",21828,"F",0,1.6,2.95,10.1
238,1874,0,"P",24257,"F",0.5,0.6,3.35,9.8
239,694,2,"DPCA",17090,"F",0,0.8,2.94,11.2
240,1831,0,"DPCA",20483,"F",0,0.4,3.72,10.1
241,837,1,"P",15112,"F",0,4.4,3.62,9.8
242,1810,0,"DPCA",23585,"F",0,1.9,2.97,9.9
243,930,2,"P",24650,"F",0,8,2.81,10
244,1690,2,"DPCA",16374,"F",0,3.9,3.22,9.6
245,1790,0,"P",16718,"F",0,0.6,3.65,9.6
246,1435,1,"DPCA",12035,"F",0,2.1,3.77,10.1
247,732,1,"DPCA",15056,"F",0,6.1,2.83,10
248,1785,0,"P",20241,"F",0,0.8,3.51,10
249,1783,0,"DPCA",17525,"F",0,1.3,3.2,10.6
250,1769,0,"P",14899,"F",0,0.6,3.36,10.9
251,1457,0,"DPCA",20810,"F",0,0.5,3.61,9.9
252,1770,0,"DPCA",25006,"F",0,1.1,3.35,10
253,1765,0,"DPCA",28650,"M",0,7.1,3.03,11.2
254,737,1,"DPCA",14558,"F",0,3.1,3.75,10
255,1735,0,"P",12897,"F",0,0.7,3.85,10.3
256,1701,0,"DPCA",11485,"F",0,1.1,3.74,9.7
257,1614,0,"DPCA",21281,"F",0,0.5,4.23,10.6
258,1702,0,"DPCA",18806,"F",0,1.1,3.44,9.6
259,1615,0,"P",21904,"F",0,3.1,2.97,9.8
260,1656,0,"P",27220,"M",0,5.6,3.59,10.9
261,1677,0,"P",19126,"F",0,3.2,3.14,9.5
262,1666,0,"P",15628,"F",0,2.8,3.06,9.5
263,1301,1,"P",12738,"F",0.5,1.1,3.57,11.4
264,1542,1,"P",16122,"F",0,3.4,3.12,11.2
265,1084,1,"P",16941,"F",0,3.5,3.2,10
266,1614,0,"DPCA",20567,"F",0,0.5,3.32,10.2
267,179,2,"DPCA",25899,"F",1,6.6,2.33,12.1
268,1191,2,"DPCA",20233,"F",0.5,6.4,2.75,11
269,1363,0,"P",16467,"F",0,3.6,3.5,10.1
270,1568,0,"DPCA",9598,"F",0,1,3.74,10.2
271,1569,0,"P",18435,"F",0,1,3.5,9.7
272,1525,0,"DPCA",14025,"F",0,0.5,2.93,9.8
273,1558,0,"P",17320,"F",0,2.2,3.46,9.6
274,1447,1,"DPCA",17525,"F",0,1.6,3.07,9.6
275,1349,0,"DPCA",13995,"F",0,2.2,3.77,9.5
276,1481,0,"DPCA",18302,"F",0,1,3.85,10.7
277,1434,0,"P",12816,"F",0.5,1,3.56,9.8
278,1420,0,"P",11872,"F",0,5.6,3.7,9.9
279,1433,0,"P",20510,"F",0,0.5,3.77,9.8
280,1412,0,"DPCA",16858,"F",0,1.6,3.69,9.6
281,41,2,"DPCA",24064,"F",1,17.9,2.1,12.9
282,1455,0,"P",12398,"F",0,1.3,3.52,9.5
283,1030,0,"P",22960,"F",0,1.1,3.99,9.6
284,1418,0,"P",17738,"F",0,1.3,3.44,9.5
285,1401,0,"DPCA",16929,"F",0,0.8,3.48,10
286,1408,0,"DPCA",14191,"F",0,2,3.36,9.8
287,1234,0,"DPCA",21421,"F",0,6.4,3.46,10.1
288,1067,1,"P",17874,"F",0.5,8.7,3.89,9.6
289,799,2,"DPCA",24681,"M",0.5,4,3.99,9.8
290,1363,0,"DPCA",24101,"F",0,1.4,3.57,9.8
291,901,1,"DPCA",14939,"F",0,3.2,3.18,9.9
292,1329,0,"P",18352,"M",0,8.6,3.73,11.2
293,1320,0,"P",20891,"F",1,8.5,2.98,12.3
294,1302,0,"DPCA",22111,"M",0,6.6,3.07,10.9
295,877,1,"DPCA",12912,"M",0,2.4,3.83,10.3
296,1321,0,"P",11462,"F",0,0.8,3.31,10.9
297,533,1,"DPCA",20449,"M",0,1.2,3.43,11.3
298,1300,0,"P",19258,"F",0,1.1,3.37,10.2
299,1293,0,"DPCA",13913,"F",0,2.4,3.76,10.8
300,207,2,"P",21247,"F",0,5.2,2.23,12.3
301,1295,0,"P",16513,"F",0,1,3.57,10.5
302,1271,0,"DPCA",13806,"F",0,0.7,3.95,10.6
303,1250,0,"P",22156,"F",0,1,3.25,10.6
304,1230,0,"DPCA",12979,"F",0,0.5,3.93,10.8
305,1216,0,"P",15730,"F",0,2.9,3.61,10.6
306,1216,0,"P",20597,"F",0,0.6,3.45,10.7
307,1149,0,"P",11167,"F",0,0.8,3.56,10.5
308,1153,0,"DPCA",22347,"F",0,0.4,3.58,10.4
309,994,0,"P",21294,"F",0,0.4,2.75,10.8
310,939,0,"DPCA",22767,"F",0,1.7,3.35,10.2
311,839,0,"DPCA",13879,"F",0,2,3.16,10.5
312,788,0,"P",12109,"F",0,6.4,3.79,10.8
